{
  "project_info": {
    "project_number": "638350392693",
    "firebase_url": "https://mensageiro-915f2.firebaseio.com",
    "project_id": "mensageiro-915f2",
    "storage_bucket": "mensageiro-915f2.appspot.com"
  },
  "client": [
    {
      "client_info": {
        "mobilesdk_app_id": "1:638350392693:android:9075e0072da8c9b408673c",
        "android_client_info": {
          "package_name": "com.igorsantos.mensageiro"
        }
      },
      "oauth_client": [
        {
          "client_id": "638350392693-fo5i35g3ujkhidlt53j8kmmqi0rs3v3r.apps.googleusercontent.com",
          "client_type": 1,
          "android_info": {
            "package_name": "com.igorsantos.mensageiro",
            "certificate_hash": "e756b5ccad851b9f664aa348b5f7ea35cf3ba920"
          }
        },
        {
          "client_id": "638350392693-betk7mjk30igi7t712trjclobmpqaoef.apps.googleusercontent.com",
          "client_type": 3
        }
      ],
      "api_key": [
        {
          "current_key": "AIzaSyBHXsMn7uU4EjES7Hdpj2ZK_weqTgVNnSE"
        }
      ],
      "services": {
        "appinvite_service": {
          "other_platform_oauth_client": [
            {
              "client_id": "638350392693-betk7mjk30igi7t712trjclobmpqaoef.apps.googleusercontent.com",
              "client_type": 3
            },
            {
              "client_id": "638350392693-o07ii622udfetjtqe7b568cn1p4meqh1.apps.googleusercontent.com",
              "client_type": 2,
              "ios_info": {
                "bundle_id": "com.igorsantos.mensageiro"
              }
            }
          ]
        }
      }
    }
  ],
  "configuration_version": "1"
}